<?xml version="1.0" encoding="utf-8"?>
<!-- Generator: Adobe Illustrator 25.2.1, SVG Export Plug-In . SVG Version: 6.00 Build 0)  -->
<svg version="1.1" id="Слой_1" xmlns="http://www.w3.org/2000/svg" xmlns:xlink="http://www.w3.org/1999/xlink" x="0px" y="0px"
	 viewBox="0 0 500 500" style="enable-background:new 0 0 500 500;" xml:space="preserve">
<style type="text/css">
	.st0{fill:#FFFFFF;}
</style>
<g transform="translate(0.000000,512.000000) scale(0.100000,-0.100000)">
	<path class="st0" d="M2362.7,4591c-12-1.5-49.5-6.8-82.5-11.2c-388.5-51-774-251.2-1015.5-526.5c-39.8-45.8-95.2-108-123-139.5
		c-225.8-251.2-387-572.2-455.2-908.2c-51-247.5-50.2-544.5,0-792c47.2-230.2,143.2-468.8,264-652.5c29.2-45,61.5-102.8,70.5-128.2
		c49.5-134.2,114.8-240,204.8-334.5c77.2-81,159-141,258.8-189c98.2-48,183-73.5,284.2-86.2c56.2-7.5,75-12.8,80.2-22.5
		c13.5-24.8,55.5-45,95.2-45c20.2,0,111.8,13.5,202.5,29.2c126.8,22.5,171.8,33,189.8,45.8c23.2,16.5,39.8,42,47.2,75.8
		c6.8,26.2-288.8,1728.8-305.2,1760.2s-52.5,55.5-89.3,59.2c-39,4.5-362.2-51.8-393.8-68.2c-27.8-14.2-50.2-45-57-77.2
		c-5.2-21-13.5-28.5-64.5-54c-32.2-15.8-79.5-43.5-105.8-60.8c-72.8-48.8-199.5-180-246.8-256.5c-22.5-36-42.8-66-45-66
		s-11.2,29.2-21,66c-76.5,304.5-66,612.8,32.2,906.8c37.5,113.2,99,246,147.8,322.5c29.2,44.2,39,54,70.5,66
		c77.2,29.2,139.5,73.5,231,165.8c191.2,190.5,374.2,294,630.8,355.5c237.8,57,492,58.5,727.5,3.8c143.2-33,329.2-111.8,446.2-189.8
		c66.8-44.2,178.5-140.2,202.5-174c28.5-39.8,124.5-111,198.8-147c69-33,71.2-35.2,105-90c188.2-300.8,266.2-723.8,202.5-1090.5
		c-12.8-74.2-42.8-195-48.8-195c-2.2,0-22.5,30-45,66c-47.2,76.5-174,207.8-246.8,256.5c-26.2,17.2-73.5,45-105.8,60.8
		c-47.2,24-59.2,33-62.2,49.5c-7.5,33-32.2,68.2-58.5,81c-32.2,17.2-354.8,73.5-394.5,69c-36.8-3.8-72.8-27.8-89.2-59.2
		c-6.8-12.8-78-402.8-161.2-882c-158.2-910.5-154.5-884.2-123-930c21.8-30.8,65.2-44.2,225-72c191.2-33,224.2-33.8,261.8-8.2
		c15,10.5,30.8,18.8,34.5,18.8c4.5,0,7.5,5.2,7.5,11.2s4.5,11.2,9.8,11.2c4.5,0,42,5.2,82.5,11.2c325.5,48.8,606.8,284.2,717.8,600
		c7.5,21,40.5,81,74.2,134.2c201.8,321,300.8,664.5,300.8,1047c0,317.2-60,583.5-194.2,858.8c-80.2,166.5-183,321-290.2,438.8
		c-24.8,27-76.5,85.5-114.8,129.8c-141.8,164.2-297,282-507,384c-159,78-294.8,121.5-481.5,154.5c-70.5,12.8-125.2,16.5-272.2,18
		C2467.7,4593.3,2375.4,4592.5,2362.7,4591z M2080.7,1762c75.8-438,136.5-798,135-799.5c-4.5-4.5-231.8-44.2-235.5-41.2
		c-2.2,3-273.8,1557.8-276,1585.5c-1.5,13.5,9,16.5,107.2,34.5c60,11.2,114,19.5,120,18.8C1939.7,2559.3,1971.9,2387.5,2080.7,1762z
		 M3285.2,2537.5l90-15.8l-2.2-22.5c-4.5-37.5-272.2-1574.2-275.2-1577.2c-3-3.8-231,36-235.5,40.5c-3,2.2,266.2,1570.5,273,1591.5
		c3,6.8,11.2,8.2,31.5,4.5C3182.4,2555.5,3235.7,2545.8,3285.2,2537.5z"/>
</g>
</svg>
